{
    "format_version": "1.19.60",
    "minecraft:item": {
        "description": {
            "identifier": "haste:magic_mirror"
        },
        "components":  {
			"minecraft:creative_category": {
				"category": "items"
			},
			"minecraft:icon": {
				"texture": "haste_magic_mirror"
			},
			"minecraft:display_name": {
				"value": "Magic mirror"
			},
			"minecraft:allow_off_hand": true,
			"minecraft:max_stack_size": 1
		}
    }
}
